# Blender MTL File: 'None'
# Material Count: 3

newmtl Material.001
Ns 96.078431
Ka 1.000000 1.000000 1.000000
Kd 0.178582 0.639282 0.099817
Ks 0.500000 0.500000 0.500000
Ke 0.000000 0.000000 0.000000
Ni 1.000000
d 1.000000
illum 2

newmtl Material.002
Ns 96.078431
Ka 1.000000 1.000000 1.000000
Kd 0.101659 0.214034 0.196730
Ks 0.500000 0.500000 0.500000
Ke 0.000000 0.000000 0.000000
Ni 1.000000
d 1.000000
illum 2

newmtl None
Ns 0
Ka 0.000000 0.000000 0.000000
Kd 0.8 0.8 0.8
Ks 0.8 0.8 0.8
d 1
illum 2
